%YAML 1.1
%TAG !u! tag:unity3d.com,2011:
--- !u!114 &11400000
MonoBehaviour:
  m_ObjectHideFlags: 0
  m_CorrespondingSourceObject: {fileID: 0}
  m_PrefabInstance: {fileID: 0}
  m_PrefabAsset: {fileID: 0}
  m_GameObject: {fileID: 0}
  m_Enabled: 1
  m_EditorHideFlags: 0
  m_Script: {fileID: 11500000, guid: 93bede0bcb184814c9c47b651a40c795, type: 3}
  m_Name: A
  m_EditorClassIdentifier: 
  cardID: 0
  cardName: "Comp\xE9t"
  sprite: 0
  dialogue: Marie veut toujours etre la premiere
  leftQuote: C'est normal
  rightQuote: Elle ne devrait pas
